<svg xmlns="http://www.w3.org/2000/svg" width="141.856" height="190.473" viewBox="0 0 141.856 190.473">
  <g id="Group_1855" data-name="Group 1855" transform="translate(-1237 -1122)">
    <g id="map_yellow" transform="translate(1237 1122)">
      <g id="placeholder-point">
        <g id="Group_23" data-name="Group 23">
          <path id="Path_79" data-name="Path 79" d="M138.659,190.473l22.41-27.454s48.518-67.53,48.518-92.091a70.928,70.928,0,1,0-141.856,0C67.731,110.1,138.659,190.473,138.659,190.473Zm0-168.519a48.971,48.971,0,1,1-48.97,48.971,48.971,48.971,0,0,1,48.97-48.971Z" transform="translate(-67.731)" fill="#4d7a2f"/>
          <circle id="Ellipse_60" data-name="Ellipse 60" cx="57.533" cy="57.533" r="57.533" transform="translate(13.396 13.392)" fill="#fff"/>
        </g>
        <g id="Group_26" data-name="Group 26">
          <circle id="Ellipse_60-2" data-name="Ellipse 60" cx="57.533" cy="57.533" r="57.533" transform="translate(13.396 13.392)" fill="#fff"/>
        </g>
      </g>
      <g id="house-black-silhouette-without-door" transform="translate(35.258 33.561)">
        <path id="Path_80" data-name="Path 80" d="M70.275,38.506A3.393,3.393,0,0,0,70,33.65L38.192,5.82a3.965,3.965,0,0,0-5.171.06L1.107,35.134a3.374,3.374,0,0,0-.154,4.849l.8.833a3.489,3.489,0,0,0,4.789.367l2.385-2.136v31.27A3.471,3.471,0,0,0,12.4,73.788H24.84a3.471,3.471,0,0,0,3.472-3.472V48.44H44.178V70.317a3.281,3.281,0,0,0,3.261,3.47H60.623A3.471,3.471,0,0,0,64.1,70.315V39.487s.659.577,1.471,1.291,2.515.141,3.805-1.279Z" transform="translate(0 -4.89)" fill="#4d7a2f"/>
      </g>
    </g>
  </g>
</svg>
